Library\Bee\artifacts\mvdfrm\Unity.InputSystem.ref.dll_711B43A81BDD0C93.mvfrm
Library\Bee\artifacts\mvdfrm\Unity.XR.OpenXR.ref.dll_74F9F7CFA50F76F2.mvfrm
Library\Bee\artifacts\mvdfrm\UnityEngine.UI.ref.dll_CDEBC717C64AFBAE.mvfrm
Library\Bee\artifacts\mvdfrm\UnityEngine.AccessibilityModule.dll_B6FB67BE3FA75465.mvfrm
Library\Bee\artifacts\mvdfrm\UnityEngine.AIModule.dll_2464DBC06CBA6F05.mvfrm
Library\Bee\artifacts\mvdfrm\UnityEngine.AndroidJNIModule.dll_5BB619CC8053B743.mvfrm
Library\Bee\artifacts\mvdfrm\UnityEngine.AnimationModule.dll_2038FE7B161D11CB.mvfrm
Library\Bee\artifacts\mvdfrm\UnityEngine.ARModule.dll_DDD7A0C3C9D7CDCE.mvfrm
Library\Bee\artifacts\mvdfrm\UnityEngine.AssetBundleModule.dll_176AA8961A7B2059.mvfrm
Library\Bee\artifacts\mvdfrm\UnityEngine.AudioModule.dll_CE61D5427AF887FD.mvfrm
Library\Bee\artifacts\mvdfrm\UnityEngine.ClothModule.dll_354A323D551566E1.mvfrm
Library\Bee\artifacts\mvdfrm\UnityEngine.CoreModule.dll_3CA63E35F6FF7BFC.mvfrm
Library\Bee\artifacts\mvdfrm\UnityEngine.CrashReportingModule.dll_B3EFEFB22E896514.mvfrm
Library\Bee\artifacts\mvdfrm\UnityEngine.DirectorModule.dll_1E8D6692729AE919.mvfrm
Library\Bee\artifacts\mvdfrm\UnityEngine.dll_B2D29922C661ECD9.mvfrm
Library\Bee\artifacts\mvdfrm\UnityEngine.DSPGraphModule.dll_23DEC7FBE4FBBA3A.mvfrm
Library\Bee\artifacts\mvdfrm\UnityEngine.GameCenterModule.dll_860363E74694A834.mvfrm
Library\Bee\artifacts\mvdfrm\UnityEngine.GIModule.dll_BCA124CE0869571F.mvfrm
Library\Bee\artifacts\mvdfrm\UnityEngine.GridModule.dll_1A175A240F5411F3.mvfrm
Library\Bee\artifacts\mvdfrm\UnityEngine.HotReloadModule.dll_A181BC80F1502D4D.mvfrm
Library\Bee\artifacts\mvdfrm\UnityEngine.ImageConversionModule.dll_F4A2C32DE4363238.mvfrm
Library\Bee\artifacts\mvdfrm\UnityEngine.IMGUIModule.dll_06C174A9412A1BDE.mvfrm
Library\Bee\artifacts\mvdfrm\UnityEngine.InputLegacyModule.dll_A8AFC3B4B26CD64A.mvfrm
Library\Bee\artifacts\mvdfrm\UnityEngine.InputModule.dll_34D79CF2F130ACA1.mvfrm
Library\Bee\artifacts\mvdfrm\UnityEngine.JSONSerializeModule.dll_1712F0FA3EE2B4EF.mvfrm
Library\Bee\artifacts\mvdfrm\UnityEngine.LocalizationModule.dll_E025E404FEE1EDC6.mvfrm
Library\Bee\artifacts\mvdfrm\UnityEngine.ParticleSystemModule.dll_070238FE9C9AF0A2.mvfrm
Library\Bee\artifacts\mvdfrm\UnityEngine.PerformanceReportingModule.dll_D090B406E41A0CBB.mvfrm
Library\Bee\artifacts\mvdfrm\UnityEngine.Physics2DModule.dll_6CDEEE6BB71A0960.mvfrm
Library\Bee\artifacts\mvdfrm\UnityEngine.PhysicsModule.dll_B2DDB4DDB3B4C46E.mvfrm
Library\Bee\artifacts\mvdfrm\UnityEngine.ProfilerModule.dll_50D39FC90BF47026.mvfrm
Library\Bee\artifacts\mvdfrm\UnityEngine.RuntimeInitializeOnLoadManagerInitializerModule.dll_DA1241FA97123A29.mvfrm
Library\Bee\artifacts\mvdfrm\UnityEngine.ScreenCaptureModule.dll_30FA9E7F534EE151.mvfrm
Library\Bee\artifacts\mvdfrm\UnityEngine.SharedInternalsModule.dll_78B402035B642D88.mvfrm
Library\Bee\artifacts\mvdfrm\UnityEngine.SpriteMaskModule.dll_6F2FD67768043DAE.mvfrm
Library\Bee\artifacts\mvdfrm\UnityEngine.SpriteShapeModule.dll_30CBD5F0D01D5863.mvfrm
Library\Bee\artifacts\mvdfrm\UnityEngine.StreamingModule.dll_D4CDEBCB65A4C909.mvfrm
Library\Bee\artifacts\mvdfrm\UnityEngine.SubstanceModule.dll_B1790014B0F7C717.mvfrm
Library\Bee\artifacts\mvdfrm\UnityEngine.SubsystemsModule.dll_D9DD3CD9364C25C1.mvfrm
Library\Bee\artifacts\mvdfrm\UnityEngine.TerrainModule.dll_CD24304C89730D5C.mvfrm
Library\Bee\artifacts\mvdfrm\UnityEngine.TerrainPhysicsModule.dll_077CE1D1B5DDEB2F.mvfrm
Library\Bee\artifacts\mvdfrm\UnityEngine.TextCoreFontEngineModule.dll_B16952906BF3A1FA.mvfrm
Library\Bee\artifacts\mvdfrm\UnityEngine.TextCoreTextEngineModule.dll_F9518901FB775B18.mvfrm
Library\Bee\artifacts\mvdfrm\UnityEngine.TextRenderingModule.dll_5A3A108A0A866146.mvfrm
Library\Bee\artifacts\mvdfrm\UnityEngine.TilemapModule.dll_6C2097CDA12FEE65.mvfrm
Library\Bee\artifacts\mvdfrm\UnityEngine.TLSModule.dll_CB0F913C7FFB49C2.mvfrm
Library\Bee\artifacts\mvdfrm\UnityEngine.UIElementsModule.dll_DE1B9E41397861B8.mvfrm
Library\Bee\artifacts\mvdfrm\UnityEngine.UIElementsNativeModule.dll_750A6E346638630F.mvfrm
Library\Bee\artifacts\mvdfrm\UnityEngine.UIModule.dll_1FD879EDC90174B1.mvfrm
Library\Bee\artifacts\mvdfrm\UnityEngine.UmbraModule.dll_4936815B081F3370.mvfrm
Library\Bee\artifacts\mvdfrm\UnityEngine.UNETModule.dll_CF4C861F440E7175.mvfrm
Library\Bee\artifacts\mvdfrm\UnityEngine.UnityAnalyticsCommonModule.dll_6BCF714AFE02AB19.mvfrm
Library\Bee\artifacts\mvdfrm\UnityEngine.UnityAnalyticsModule.dll_26A1A9C848C2429E.mvfrm
Library\Bee\artifacts\mvdfrm\UnityEngine.UnityConnectModule.dll_0F9C28ABB06628B2.mvfrm
Library\Bee\artifacts\mvdfrm\UnityEngine.UnityCurlModule.dll_53559FAC863103B8.mvfrm
Library\Bee\artifacts\mvdfrm\UnityEngine.UnityTestProtocolModule.dll_8C3C10816DDEF426.mvfrm
Library\Bee\artifacts\mvdfrm\UnityEngine.UnityWebRequestAssetBundleModule.dll_47299D514EBC2BEF.mvfrm
Library\Bee\artifacts\mvdfrm\UnityEngine.UnityWebRequestAudioModule.dll_488D07E56A84D753.mvfrm
Library\Bee\artifacts\mvdfrm\UnityEngine.UnityWebRequestModule.dll_0641CAD7EF2ACCB7.mvfrm
Library\Bee\artifacts\mvdfrm\UnityEngine.UnityWebRequestTextureModule.dll_A52438995EDAE588.mvfrm
Library\Bee\artifacts\mvdfrm\UnityEngine.UnityWebRequestWWWModule.dll_C413CE5DEB371784.mvfrm
Library\Bee\artifacts\mvdfrm\UnityEngine.VehiclesModule.dll_96506011ECC4B8B4.mvfrm
Library\Bee\artifacts\mvdfrm\UnityEngine.VFXModule.dll_4BEE29AB5668B32F.mvfrm
Library\Bee\artifacts\mvdfrm\UnityEngine.VideoModule.dll_F36B59AD3D8AA3A2.mvfrm
Library\Bee\artifacts\mvdfrm\UnityEngine.VirtualTexturingModule.dll_999722A33EE6E39A.mvfrm
Library\Bee\artifacts\mvdfrm\UnityEngine.VRModule.dll_72AAA0736ABBFA29.mvfrm
Library\Bee\artifacts\mvdfrm\UnityEngine.WindModule.dll_B2F5195E8835FA65.mvfrm
Library\Bee\artifacts\mvdfrm\UnityEngine.XRModule.dll_A5696377F3F64787.mvfrm