^E:\unity\Project\MRTK-Tutorial\mrtk-tutorial\MRTK-Tutorial\Builds\WSAPlayer\MRTK-Tutorial\MRTK-Tutorial.vcxproj
E:\unity\Caches\Hub\Editor\2022.1.21f1\Editor\Data\PlaybackEngines\MetroSupport\Players\UAP\il2cpp\ARM\Release\UnityPlayer.winmd
E:\unity\Caches\Hub\Editor\2022.1.21f1\Editor\Data\PlaybackEngines\MetroSupport\Players\UAP\il2cpp\ARM\Release\UnityPlayer_UAP_ARM_Release_il2cpp.pdb
E:\unity\Caches\Hub\Editor\2022.1.21f1\Editor\Data\PlaybackEngines\MetroSupport\Players\UAP\il2cpp\ARM\Release\UnityPlayer.dll
