%YAML 1.1
%TAG !u! tag:unity3d.com,2011:
--- !u!162 &1
EditorUserSettings:
  m_ObjectHideFlags: 0
  serializedVersion: 4
  m_ConfigSettings:
    RecentlyUsedSceneGuid-0:
      value: 5a5757560101590a5d0c0e24427b5d44434e4c7a7b7a23677f2b4565b7b5353a
      flags: 0
    RecentlyUsedSceneGuid-1:
      value: 505550520406500d0f5b5e7045250744404e1a732d7923327b794531e4e1616f
      flags: 0
    RecentlyUsedSceneGuid-2:
      value: 5602040007575f5a5c570d711676094417161c7a2e2b27627b2f4862e0e5616d
      flags: 0
    RecentlyUsedSceneGuid-3:
      value: 57040c005c500a5a0c5d5d2412720a444f164a7974297f3479284a35e7e46469
      flags: 0
    RecentlyUsedSceneGuid-4:
      value: 00525557510c5f5f5a570d7144755e44154e402e757d7565792a1c30b3b13768
      flags: 0
    RecentlyUsedSceneGuid-5:
      value: 5a0750070657515f590b0a77467a0d44464e40737b297162752c4536b1b33639
      flags: 0
    RecentlyUsedSceneGuid-6:
      value: 5105040406075b08580c5c7144275d4443154f2c782b23637f7c1863b5e56c3b
      flags: 0
    RecentlyUsedSceneGuid-7:
      value: 55000352510d5d58095e597a16755c4443164f2c79297f617b7b1b61b0e16261
      flags: 0
    vcSharedLogLevel:
      value: 0d5e400f0650
      flags: 0
  m_VCAutomaticAdd: 1
  m_VCDebugCom: 0
  m_VCDebugCmd: 0
  m_VCDebugOut: 0
  m_SemanticMergeMode: 2
  m_DesiredImportWorkerCount: 2
  m_StandbyImportWorkerCount: 2
  m_IdleImportWorkerShutdownDelay: 60000
  m_VCShowFailedCheckout: 1
  m_VCOverwriteFailedCheckoutAssets: 1
  m_VCProjectOverlayIcons: 1
  m_VCHierarchyOverlayIcons: 1
  m_VCOtherOverlayIcons: 1
  m_VCAllowAsyncUpdate: 1
  m_ArtifactGarbageCollection: 1
