Library\Bee\artifacts\mvdfrm\Unity.XR.Management.ref.dll_2143D1A05822269F.mvfrm
Library\Bee\artifacts\mvdfrm\UnityEditor.UI.ref.dll_A5B8DFEEFAF822A5.mvfrm
Library\Bee\artifacts\mvdfrm\UnityEngine.UI.ref.dll_621EB64A011A4B10.mvfrm
Library\Bee\artifacts\mvdfrm\UnityEditor.Graphs.dll_BA2E028936DD5370.mvfrm
Library\Bee\artifacts\mvdfrm\UnityEditor.CoreModule.dll_2ED08E0AC89F873E.mvfrm
Library\Bee\artifacts\mvdfrm\UnityEditor.DeviceSimulatorModule.dll_F8DBC2E6F5B5DCE3.mvfrm
Library\Bee\artifacts\mvdfrm\UnityEditor.DiagnosticsModule.dll_83FE246A431B9E71.mvfrm
Library\Bee\artifacts\mvdfrm\UnityEditor.dll_1EE5225724293DF7.mvfrm
Library\Bee\artifacts\mvdfrm\UnityEditor.GraphViewModule.dll_48AE521940C3DE28.mvfrm
Library\Bee\artifacts\mvdfrm\UnityEditor.PackageManagerUIModule.dll_0B0787EBE046F31A.mvfrm
Library\Bee\artifacts\mvdfrm\UnityEditor.PresetsUIModule.dll_04148AFB431C362D.mvfrm
Library\Bee\artifacts\mvdfrm\UnityEditor.QuickSearchModule.dll_0F0DA5779BF29ACA.mvfrm
Library\Bee\artifacts\mvdfrm\UnityEditor.SceneTemplateModule.dll_5AD84E78F875768B.mvfrm
Library\Bee\artifacts\mvdfrm\UnityEditor.TextCoreFontEngineModule.dll_BB256A750B775AFC.mvfrm
Library\Bee\artifacts\mvdfrm\UnityEditor.TextCoreTextEngineModule.dll_030DA0E69AFB141A.mvfrm
Library\Bee\artifacts\mvdfrm\UnityEditor.UIBuilderModule.dll_9D36FF35B37C575C.mvfrm
Library\Bee\artifacts\mvdfrm\UnityEditor.UIElementsModule.dll_C7C7DFF0BA5219BA.mvfrm
Library\Bee\artifacts\mvdfrm\UnityEditor.UIElementsSamplesModule.dll_20EC3CE2606CC153.mvfrm
Library\Bee\artifacts\mvdfrm\UnityEditor.UIServiceModule.dll_D62910989CB3A776.mvfrm
Library\Bee\artifacts\mvdfrm\UnityEditor.UnityConnectModule.dll_F81552042299D4F4.mvfrm
Library\Bee\artifacts\mvdfrm\UnityEngine.AccessibilityModule.dll_8D7DBA0FF8EB9E28.mvfrm
Library\Bee\artifacts\mvdfrm\UnityEngine.AIModule.dll_0A0BAD731627D9D2.mvfrm
Library\Bee\artifacts\mvdfrm\UnityEngine.AndroidJNIModule.dll_4610C8C403718890.mvfrm
Library\Bee\artifacts\mvdfrm\UnityEngine.AnimationModule.dll_1733CE421B20B2CE.mvfrm
Library\Bee\artifacts\mvdfrm\UnityEngine.ARModule.dll_C37E72767345389B.mvfrm
Library\Bee\artifacts\mvdfrm\UnityEngine.AssetBundleModule.dll_52F6D868FE594FBC.mvfrm
Library\Bee\artifacts\mvdfrm\UnityEngine.AudioModule.dll_F8572088C633B040.mvfrm
Library\Bee\artifacts\mvdfrm\UnityEngine.ClothModule.dll_5F3F7D83A0508F24.mvfrm
Library\Bee\artifacts\mvdfrm\UnityEngine.CoreModule.dll_51F1615D70A4F269.mvfrm
Library\Bee\artifacts\mvdfrm\UnityEngine.CrashReportingModule.dll_0C8D11B499E8A1A1.mvfrm
Library\Bee\artifacts\mvdfrm\UnityEngine.DirectorModule.dll_0C08CF82137212C6.mvfrm
Library\Bee\artifacts\mvdfrm\UnityEngine.dll_5189692F829CCADC.mvfrm
Library\Bee\artifacts\mvdfrm\UnityEngine.DSPGraphModule.dll_115A30EB85D2E3E7.mvfrm
Library\Bee\artifacts\mvdfrm\UnityEngine.GameCenterModule.dll_705E12DEC9B27981.mvfrm
Library\Bee\artifacts\mvdfrm\UnityEngine.GIModule.dll_A247F680B1D6C1EC.mvfrm
Library\Bee\artifacts\mvdfrm\UnityEngine.GridModule.dll_2F627D4B88F98860.mvfrm
Library\Bee\artifacts\mvdfrm\UnityEngine.HotReloadModule.dll_987C8C47F653CE50.mvfrm
Library\Bee\artifacts\mvdfrm\UnityEngine.ImageConversionModule.dll_6A7A8308E795A25B.mvfrm
Library\Bee\artifacts\mvdfrm\UnityEngine.IMGUIModule.dll_30B6BFEF8C654421.mvfrm
Library\Bee\artifacts\mvdfrm\UnityEngine.InputLegacyModule.dll_E43BF387964B05AD.mvfrm
Library\Bee\artifacts\mvdfrm\UnityEngine.InputModule.dll_5ECCE8393C6BD4E4.mvfrm
Library\Bee\artifacts\mvdfrm\UnityEngine.JSONSerializeModule.dll_ED95434BF826FEB2.mvfrm
Library\Bee\artifacts\mvdfrm\UnityEngine.LocalizationModule.dll_B5FE916C6B9D9AB3.mvfrm
Library\Bee\artifacts\mvdfrm\UnityEngine.ParticleSystemModule.dll_5F9F5B0107FA2D2F.mvfrm
Library\Bee\artifacts\mvdfrm\UnityEngine.PerformanceReportingModule.dll_0269DB54FC873028.mvfrm
Library\Bee\artifacts\mvdfrm\UnityEngine.Physics2DModule.dll_63D9BE32BC1DAA63.mvfrm
Library\Bee\artifacts\mvdfrm\UnityEngine.PhysicsModule.dll_262AD4B1B86FE311.mvfrm
Library\Bee\artifacts\mvdfrm\UnityEngine.ProfilerModule.dll_3E4F08B8ACCB99D3.mvfrm
Library\Bee\artifacts\mvdfrm\UnityEngine.RuntimeInitializeOnLoadManagerInitializerModule.dll_4DB9358C1B30612C.mvfrm
Library\Bee\artifacts\mvdfrm\UnityEngine.ScreenCaptureModule.dll_077CF0D10C932B14.mvfrm
Library\Bee\artifacts\mvdfrm\UnityEngine.SharedInternalsModule.dll_EE8BC1DE5EC39DAB.mvfrm
Library\Bee\artifacts\mvdfrm\UnityEngine.SpriteMaskModule.dll_598A856EEB220EFB.mvfrm
Library\Bee\artifacts\mvdfrm\UnityEngine.SpriteShapeModule.dll_6C5805C3B3FB87C6.mvfrm
Library\Bee\artifacts\mvdfrm\UnityEngine.StreamingModule.dll_CBC8BB926AA86A0C.mvfrm
Library\Bee\artifacts\mvdfrm\UnityEngine.SubstanceModule.dll_A873CFDBB5FB681A.mvfrm
Library\Bee\artifacts\mvdfrm\UnityEngine.SubsystemsModule.dll_C437EBD0B969F70E.mvfrm
Library\Bee\artifacts\mvdfrm\UnityEngine.TerrainModule.dll_407150208E2E2BFF.mvfrm
Library\Bee\artifacts\mvdfrm\UnityEngine.TerrainPhysicsModule.dll_601A03D4213D27BC.mvfrm
Library\Bee\artifacts\mvdfrm\UnityEngine.TextCoreFontEngineModule.dll_3984E5C81E7519C7.mvfrm
Library\Bee\artifacts\mvdfrm\UnityEngine.TextCoreTextEngineModule.dll_816D1C39ADF8D2E5.mvfrm
Library\Bee\artifacts\mvdfrm\UnityEngine.TextRenderingModule.dll_30BC62DBC3CAAB09.mvfrm
Library\Bee\artifacts\mvdfrm\UnityEngine.TilemapModule.dll_DF6DB7A1A5EB0D08.mvfrm
Library\Bee\artifacts\mvdfrm\UnityEngine.TLSModule.dll_6B550E971AE587A5.mvfrm
Library\Bee\artifacts\mvdfrm\UnityEngine.UIElementsModule.dll_C8764D38BC963305.mvfrm
Library\Bee\artifacts\mvdfrm\UnityEngine.UIElementsNativeModule.dll_55813C8151BF633C.mvfrm
Library\Bee\artifacts\mvdfrm\UnityEngine.UIModule.dll_057F4BA0726EDF7E.mvfrm
Library\Bee\artifacts\mvdfrm\UnityEngine.UmbraModule.dll_732BCCA1535A5BB3.mvfrm
Library\Bee\artifacts\mvdfrm\UnityEngine.UNETModule.dll_E497A946BDB3E7E2.mvfrm
Library\Bee\artifacts\mvdfrm\UnityEngine.UnityAnalyticsCommonModule.dll_9DA89899166FCE86.mvfrm
Library\Bee\artifacts\mvdfrm\UnityEngine.UnityAnalyticsModule.dll_7F3ECBCAB4217F2B.mvfrm
Library\Bee\artifacts\mvdfrm\UnityEngine.UnityConnectModule.dll_E574D6131D21D59F.mvfrm
Library\Bee\artifacts\mvdfrm\UnityEngine.UnityCurlModule.dll_4A506F738B34A4BB.mvfrm
Library\Bee\artifacts\mvdfrm\UnityEngine.UnityTestProtocolModule.dll_DCAEF2D4BA6816A9.mvfrm
Library\Bee\artifacts\mvdfrm\UnityEngine.UnityWebRequestAssetBundleModule.dll_52CA1F2E1FF48A3C.mvfrm
Library\Bee\artifacts\mvdfrm\UnityEngine.UnityWebRequestAudioModule.dll_7A662F3382F1FAC0.mvfrm
Library\Bee\artifacts\mvdfrm\UnityEngine.UnityWebRequestModule.dll_7C198AB2F28A3CDA.mvfrm
Library\Bee\artifacts\mvdfrm\UnityEngine.UnityWebRequestTextureModule.dll_76C9BCE8E1136895.mvfrm
Library\Bee\artifacts\mvdfrm\UnityEngine.UnityWebRequestWWWModule.dll_4C2F61959DB88F51.mvfrm
Library\Bee\artifacts\mvdfrm\UnityEngine.VehiclesModule.dll_83CBC9018D9BE261.mvfrm
Library\Bee\artifacts\mvdfrm\UnityEngine.VFXModule.dll_EC33A705F152F112.mvfrm
Library\Bee\artifacts\mvdfrm\UnityEngine.VideoModule.dll_1D60A4F388C5CBE5.mvfrm
Library\Bee\artifacts\mvdfrm\UnityEngine.VirtualTexturingModule.dll_7A0DF0F02A6DE3C7.mvfrm
Library\Bee\artifacts\mvdfrm\UnityEngine.VRModule.dll_58517226142964F6.mvfrm
Library\Bee\artifacts\mvdfrm\UnityEngine.WindModule.dll_C8403C8601DB70D2.mvfrm
Library\Bee\artifacts\mvdfrm\UnityEngine.XRModule.dll_8B10352A9D63B254.mvfrm
Library\Bee\artifacts\mvdfrm\Unity.Android.Gradle.dll_8D728FDC2B857026.mvfrm
Library\Bee\artifacts\mvdfrm\Unity.Android.Types.dll_7DB1B0E4EE2EB376.mvfrm
Library\Bee\artifacts\mvdfrm\UnityEditor.Android.Extensions.dll_A13DAF78DCBFB026.mvfrm
Library\Bee\artifacts\mvdfrm\UnityEditor.UWP.Extensions.dll_B422A537A5F398AD.mvfrm
Library\Bee\artifacts\mvdfrm\UnityEditor.WindowsStandalone.Extensions.dll_93D5C0A3CE5CAC42.mvfrm
Library\Bee\artifacts\mvdfrm\Unity.Plastic.Antlr3.Runtime.dll_A97382BE57E846A8.mvfrm
Library\Bee\artifacts\mvdfrm\Unity.Plastic.Newtonsoft.Json.dll_C34C7E61B1A9980D.mvfrm
Library\Bee\artifacts\mvdfrm\Unity.VisualScripting.IonicZip.dll_50C3337AA32394C7.mvfrm
Library\Bee\artifacts\mvdfrm\Unity.VisualScripting.YamlDotNet.dll_5394D80E60F012E5.mvfrm
Library\Bee\artifacts\mvdfrm\Unity.VisualScripting.TextureAssets.dll_EAB3016221BD70DD.mvfrm
Library\Bee\artifacts\mvdfrm\Unity.VisualScripting.Antlr3.Runtime.dll_0501FEEF91B92304.mvfrm