^E:\UNITY\PROJECT\MRTK-TUTORIAL\MRTK-TUTORIAL\MRTK-TUTORIAL\BUILDS\WSAPLAYER\BUILD\OBJ\MRTK-TUTORIAL\ARM64\RELEASE\APP.OBJ|E:\UNITY\PROJECT\MRTK-TUTORIAL\MRTK-TUTORIAL\MRTK-TUTORIAL\BUILDS\WSAPLAYER\BUILD\OBJ\MRTK-TUTORIAL\ARM64\RELEASE\MAIN.OBJ|E:\UNITY\PROJECT\MRTK-TUTORIAL\MRTK-TUTORIAL\MRTK-TUTORIAL\BUILDS\WSAPLAYER\BUILD\OBJ\MRTK-TUTORIAL\ARM64\RELEASE\PCH.OBJ|E:\UNITY\PROJECT\MRTK-TUTORIAL\MRTK-TUTORIAL\MRTK-TUTORIAL\BUILDS\WSAPLAYER\BUILD\OBJ\MRTK-TUTORIAL\ARM64\RELEASE\UNITYGENERATED.OBJ|E:\UNITY\PROJECT\MRTK-TUTORIAL\MRTK-TUTORIAL\MRTK-TUTORIAL\BUILDS\WSAPLAYER\MRTK-TUTORIAL\RESOURCE.RES
E:\UNITY\PROJECT\MRTK-TUTORIAL\MRTK-TUTORIAL\MRTK-TUTORIAL\BUILDS\WSAPLAYER\BUILD\BIN\ARM64\RELEASE\MRTK-TUTORIAL.EXE
E:\UNITY\PROJECT\MRTK-TUTORIAL\MRTK-TUTORIAL\MRTK-TUTORIAL\BUILDS\WSAPLAYER\BUILD\OBJ\MRTK-TUTORIAL\ARM64\RELEASE\MRTK-TUTORIAL.IOBJ
E:\UNITY\PROJECT\MRTK-TUTORIAL\MRTK-TUTORIAL\MRTK-TUTORIAL\BUILDS\WSAPLAYER\BUILD\BIN\ARM64\RELEASE\MRTK_TUTORIAL.WINMD
E:\UNITY\PROJECT\MRTK-TUTORIAL\MRTK-TUTORIAL\MRTK-TUTORIAL\BUILDS\WSAPLAYER\BUILD\BIN\ARM64\RELEASE\MRTK-TUTORIAL.PDB
