^E:\unity\Project\MRTK-Tutorial\mrtk-tutorial\MRTK-Tutorial\Builds\WSAPlayer\MRTK-Tutorial\MRTK-Tutorial.vcxproj
E:\unity\Project\MRTK-Tutorial\mrtk-tutorial\MRTK-Tutorial\Builds\WSAPlayer\build\bin\ARM64\Release\MRTK_Tutorial.winmd
E:\unity\Project\MRTK-Tutorial\mrtk-tutorial\MRTK-Tutorial\Builds\WSAPlayer\build\bin\ARM64\Release\MRTK-Tutorial.lib
E:\unity\Project\MRTK-Tutorial\mrtk-tutorial\MRTK-Tutorial\Builds\WSAPlayer\build\bin\ARM64\Release\MRTK-Tutorial.exp
^E:\unity\Project\MRTK-Tutorial\mrtk-tutorial\MRTK-Tutorial\Builds\WSAPlayer\MRTK-Tutorial\MRTK-Tutorial.vcxproj
E:\unity\Project\MRTK-Tutorial\mrtk-tutorial\MRTK-Tutorial\Builds\WSAPlayer\build\obj\MRTK-Tutorial\ARM64\Release\MRTK-Tutorial.vcxproj.AssemblyReference.cache
E:\unity\Project\MRTK-Tutorial\mrtk-tutorial\MRTK-Tutorial\Builds\WSAPlayer\build\obj\MRTK-Tutorial\ARM64\Release\MRTK-Tutorial.vcxproj.CopyComplete
E:\unity\Project\MRTK-Tutorial\mrtk-tutorial\MRTK-Tutorial\Builds\WSAPlayer\build\obj\MRTK-Tutorial\ARM64\Release\ResourceHandlingTask.state
E:\unity\Project\MRTK-Tutorial\mrtk-tutorial\MRTK-Tutorial\Builds\WSAPlayer\build\obj\MRTK-Tutorial\ARM64\Release\MRTK-Tutorial.vcxproj.GenerateResource.Cache
E:\unity\Project\MRTK-Tutorial\mrtk-tutorial\MRTK-Tutorial\Builds\WSAPlayer\build\obj\MRTK-Tutorial\ARM64\Release\priconfig.xml
E:\unity\Project\MRTK-Tutorial\mrtk-tutorial\MRTK-Tutorial\Builds\WSAPlayer\build\obj\MRTK-Tutorial\ARM64\Release\priconfig.xml.intermediate
E:\unity\Project\MRTK-Tutorial\mrtk-tutorial\MRTK-Tutorial\Builds\WSAPlayer\build\obj\MRTK-Tutorial\ARM64\Release\unfiltered.layout.resfiles
E:\unity\Project\MRTK-Tutorial\mrtk-tutorial\MRTK-Tutorial\Builds\WSAPlayer\build\obj\MRTK-Tutorial\ARM64\Release\unfiltered.layout.resfiles.intermediate
E:\unity\Project\MRTK-Tutorial\mrtk-tutorial\MRTK-Tutorial\Builds\WSAPlayer\build\obj\MRTK-Tutorial\ARM64\Release\filtered.layout.resfiles
E:\unity\Project\MRTK-Tutorial\mrtk-tutorial\MRTK-Tutorial\Builds\WSAPlayer\build\obj\MRTK-Tutorial\ARM64\Release\filtered.layout.resfiles.intermediate
E:\unity\Project\MRTK-Tutorial\mrtk-tutorial\MRTK-Tutorial\Builds\WSAPlayer\build\obj\MRTK-Tutorial\ARM64\Release\excluded.layout.resfiles
E:\unity\Project\MRTK-Tutorial\mrtk-tutorial\MRTK-Tutorial\Builds\WSAPlayer\build\obj\MRTK-Tutorial\ARM64\Release\excluded.layout.resfiles.intermediate
E:\unity\Project\MRTK-Tutorial\mrtk-tutorial\MRTK-Tutorial\Builds\WSAPlayer\build\obj\MRTK-Tutorial\ARM64\Release\resources.resfiles
E:\unity\Project\MRTK-Tutorial\mrtk-tutorial\MRTK-Tutorial\Builds\WSAPlayer\build\obj\MRTK-Tutorial\ARM64\Release\resources.resfiles.intermediate
E:\unity\Project\MRTK-Tutorial\mrtk-tutorial\MRTK-Tutorial\Builds\WSAPlayer\build\obj\MRTK-Tutorial\ARM64\Release\pri.resfiles
E:\unity\Project\MRTK-Tutorial\mrtk-tutorial\MRTK-Tutorial\Builds\WSAPlayer\build\obj\MRTK-Tutorial\ARM64\Release\pri.resfiles.intermediate
E:\unity\Project\MRTK-Tutorial\mrtk-tutorial\MRTK-Tutorial\Builds\WSAPlayer\build\bin\ARM64\Release\resources.pri
E:\unity\Project\MRTK-Tutorial\mrtk-tutorial\MRTK-Tutorial\Builds\WSAPlayer\build\obj\MRTK-Tutorial\ARM64\Release\qualifiers.txt
E:\unity\Project\MRTK-Tutorial\mrtk-tutorial\MRTK-Tutorial\Builds\WSAPlayer\build\obj\MRTK-Tutorial\ARM64\Release\qualifiers.txt.intermediate
E:\unity\Project\MRTK-Tutorial\mrtk-tutorial\MRTK-Tutorial\Builds\WSAPlayer\build\obj\MRTK-Tutorial\ARM64\Release\MultipleQualifiersPerDimensionFound.txt
E:\unity\Project\MRTK-Tutorial\mrtk-tutorial\MRTK-Tutorial\Builds\WSAPlayer\build\obj\MRTK-Tutorial\ARM64\Release\ProjectArchitectures.txt
E:\unity\Project\MRTK-Tutorial\mrtk-tutorial\MRTK-Tutorial\Builds\WSAPlayer\build\obj\MRTK-Tutorial\ARM64\Release\.winmd_cache\$UnityPlayer.winmd_638022044220000000.json
E:\unity\Project\MRTK-Tutorial\mrtk-tutorial\MRTK-Tutorial\Builds\WSAPlayer\build\bin\ARM64\Release\AppxManifest.xml
E:\unity\Project\MRTK-Tutorial\mrtk-tutorial\MRTK-Tutorial\Builds\WSAPlayer\build\bin\ARM64\Release\MRTK-Tutorial.build.appxrecipe
E:\unity\Project\MRTK-Tutorial\mrtk-tutorial\MRTK-Tutorial\Builds\WSAPlayer\build\obj\MRTK-Tutorial\ARM64\Release\package.map.txt
E:\unity\Project\MRTK-Tutorial\mrtk-tutorial\MRTK-Tutorial\Builds\WSAPlayer\AppPackages\MRTK-Tutorial\MRTK-Tutorial_1.0.2.0_ARM64_Test\MRTK-Tutorial_1.0.2.0_ARM64.appx
E:\unity\Project\MRTK-Tutorial\mrtk-tutorial\MRTK-Tutorial\Builds\WSAPlayer\build\obj\MRTK-Tutorial\ARM64\Release\_pkginfo.txt
E:\unity\Project\MRTK-Tutorial\mrtk-tutorial\MRTK-Tutorial\Builds\WSAPlayer\build\obj\MRTK-Tutorial\ARM64\Release\Symbols\MRTK-Tutorial.pdb
E:\unity\Project\MRTK-Tutorial\mrtk-tutorial\MRTK-Tutorial\Builds\WSAPlayer\build\obj\MRTK-Tutorial\ARM64\Release\Symbols\UnityPlayer_UAP_ARM64_Release_il2cpp.pdb
E:\unity\Project\MRTK-Tutorial\mrtk-tutorial\MRTK-Tutorial\Builds\WSAPlayer\build\obj\MRTK-Tutorial\ARM64\Release\Symbols\GameAssembly.pdb
E:\unity\Project\MRTK-Tutorial\mrtk-tutorial\MRTK-Tutorial\Builds\WSAPlayer\build\obj\MRTK-Tutorial\ARM64\Release\Symbols\baselib_UAP_ARM64_Release_il2cpp.pdb
E:\unity\Project\MRTK-Tutorial\mrtk-tutorial\MRTK-Tutorial\Builds\WSAPlayer\build\obj\MRTK-Tutorial\ARM64\Release\_installerinfo.log
