^E:\UNITY\PROJECT\MRTK-TUTORIAL\MRTK-TUTORIAL\MRTK-TUTORIAL\_BUILD\HANDEXAMPLE\MRTK-TUTORIAL\PCH.CPP
E:\UNITY\PROJECT\MRTK-TUTORIAL\MRTK-TUTORIAL\MRTK-TUTORIAL\_BUILD\HANDEXAMPLE\BUILD\OBJ\MRTK-TUTORIAL\ARM\DEBUG\MRTK-TUTORIAL.PCH
E:\UNITY\PROJECT\MRTK-TUTORIAL\MRTK-TUTORIAL\MRTK-TUTORIAL\_BUILD\HANDEXAMPLE\BUILD\OBJ\MRTK-TUTORIAL\ARM\DEBUG\VC142.PDB
E:\UNITY\PROJECT\MRTK-TUTORIAL\MRTK-TUTORIAL\MRTK-TUTORIAL\_BUILD\HANDEXAMPLE\BUILD\OBJ\MRTK-TUTORIAL\ARM\DEBUG\PCH.OBJ
^E:\UNITY\PROJECT\MRTK-TUTORIAL\MRTK-TUTORIAL\MRTK-TUTORIAL\_BUILD\HANDEXAMPLE\MRTK-TUTORIAL\APP.CPP|E:\UNITY\PROJECT\MRTK-TUTORIAL\MRTK-TUTORIAL\MRTK-TUTORIAL\_BUILD\HANDEXAMPLE\MRTK-TUTORIAL\MAIN.CPP|E:\UNITY\PROJECT\MRTK-TUTORIAL\MRTK-TUTORIAL\MRTK-TUTORIAL\_BUILD\HANDEXAMPLE\MRTK-TUTORIAL\UNITYGENERATED.CPP
E:\UNITY\PROJECT\MRTK-TUTORIAL\MRTK-TUTORIAL\MRTK-TUTORIAL\_BUILD\HANDEXAMPLE\BUILD\OBJ\MRTK-TUTORIAL\ARM\DEBUG\APP.OBJ
E:\UNITY\PROJECT\MRTK-TUTORIAL\MRTK-TUTORIAL\MRTK-TUTORIAL\_BUILD\HANDEXAMPLE\BUILD\OBJ\MRTK-TUTORIAL\ARM\DEBUG\MAIN.OBJ
E:\UNITY\PROJECT\MRTK-TUTORIAL\MRTK-TUTORIAL\MRTK-TUTORIAL\_BUILD\HANDEXAMPLE\BUILD\OBJ\MRTK-TUTORIAL\ARM\DEBUG\UNITYGENERATED.OBJ
^E:\UNITY\PROJECT\MRTK-TUTORIAL\MRTK-TUTORIAL\MRTK-TUTORIAL\_BUILD\HANDEXAMPLE\MRTK-TUTORIAL\APP.CPP
E:\UNITY\PROJECT\MRTK-TUTORIAL\MRTK-TUTORIAL\MRTK-TUTORIAL\_BUILD\HANDEXAMPLE\BUILD\OBJ\MRTK-TUTORIAL\ARM\DEBUG\VC142.PDB
^E:\UNITY\PROJECT\MRTK-TUTORIAL\MRTK-TUTORIAL\MRTK-TUTORIAL\_BUILD\HANDEXAMPLE\MRTK-TUTORIAL\MAIN.CPP
E:\UNITY\PROJECT\MRTK-TUTORIAL\MRTK-TUTORIAL\MRTK-TUTORIAL\_BUILD\HANDEXAMPLE\BUILD\OBJ\MRTK-TUTORIAL\ARM\DEBUG\VC142.PDB
^E:\UNITY\PROJECT\MRTK-TUTORIAL\MRTK-TUTORIAL\MRTK-TUTORIAL\_BUILD\HANDEXAMPLE\MRTK-TUTORIAL\UNITYGENERATED.CPP
E:\UNITY\PROJECT\MRTK-TUTORIAL\MRTK-TUTORIAL\MRTK-TUTORIAL\_BUILD\HANDEXAMPLE\BUILD\OBJ\MRTK-TUTORIAL\ARM\DEBUG\VC142.PDB
