^E:\unity\Project\MRTK-Tutorial\mrtk-tutorial\MRTK-Tutorial\_build\HandExample\MRTK-Tutorial\MRTK-Tutorial.vcxproj
E:\unity\Project\MRTK-Tutorial\mrtk-tutorial\MRTK-Tutorial\_build\HandExample\build\bin\ARM\Debug\UnityPlayer.winmd
E:\unity\Project\MRTK-Tutorial\mrtk-tutorial\MRTK-Tutorial\_build\HandExample\build\bin\ARM\Debug\UnityPlayer_UAP_ARM_Debug_il2cpp.pdb
E:\unity\Project\MRTK-Tutorial\mrtk-tutorial\MRTK-Tutorial\_build\HandExample\build\bin\ARM\Debug\UnityPlayer.dll
