^E:\UNITY\PROJECT\MRTK-TUTORIAL\MRTK-TUTORIAL\MRTK-TUTORIAL\_BUILD\HANDEXAMPLE\BUILD\OBJ\MRTK-TUTORIAL\ARM\DEBUG\APP.OBJ|E:\UNITY\PROJECT\MRTK-TUTORIAL\MRTK-TUTORIAL\MRTK-TUTORIAL\_BUILD\HANDEXAMPLE\BUILD\OBJ\MRTK-TUTORIAL\ARM\DEBUG\MAIN.OBJ|E:\UNITY\PROJECT\MRTK-TUTORIAL\MRTK-TUTORIAL\MRTK-TUTORIAL\_BUILD\HANDEXAMPLE\BUILD\OBJ\MRTK-TUTORIAL\ARM\DEBUG\PCH.OBJ|E:\UNITY\PROJECT\MRTK-TUTORIAL\MRTK-TUTORIAL\MRTK-TUTORIAL\_BUILD\HANDEXAMPLE\BUILD\OBJ\MRTK-TUTORIAL\ARM\DEBUG\UNITYGENERATED.OBJ|E:\UNITY\PROJECT\MRTK-TUTORIAL\MRTK-TUTORIAL\MRTK-TUTORIAL\_BUILD\HANDEXAMPLE\MRTK-TUTORIAL\RESOURCE.RES
/OUT:"E:\UNITY\PROJECT\MRTK-TUTORIAL\MRTK-TUTORIAL\MRTK-TUTORIAL\_BUILD\HANDEXAMPLE\BUILD\BIN\ARM\DEBUG\MRTK-TUTORIAL.EXE" /INCREMENTAL /ILK:"E:\UNITY\PROJECT\MRTK-TUTORIAL\MRTK-TUTORIAL\MRTK-TUTORIAL\_BUILD\HANDEXAMPLE\BUILD\OBJ\MRTK-TUTORIAL\ARM\DEBUG\MRTK-TUTORIAL.ILK" /NOLOGO WINDOWSAPP.LIB "E:\UNITY\PROJECT\MRTK-TUTORIAL\MRTK-TUTORIAL\MRTK-TUTORIAL\_BUILD\HANDEXAMPLE\BUILD\BIN\ARM\DEBUG\GAMEASSEMBLY.LIB" WINDOWSAPP.LIB /MANIFEST:NO /DEBUG:FULL /PDB:"E:\UNITY\PROJECT\MRTK-TUTORIAL\MRTK-TUTORIAL\MRTK-TUTORIAL\_BUILD\HANDEXAMPLE\BUILD\BIN\ARM\DEBUG\MRTK-TUTORIAL.PDB" /SUBSYSTEM:WINDOWS /TLBID:1 /APPCONTAINER /WINMD /WINMDFILE:"E:\UNITY\PROJECT\MRTK-TUTORIAL\MRTK-TUTORIAL\MRTK-TUTORIAL\_BUILD\HANDEXAMPLE\BUILD\BIN\ARM\DEBUG\MRTK_TUTORIAL.WINMD" /DYNAMICBASE /NXCOMPAT /MACHINE:ARM "E:\UNITY\PROJECT\MRTK-TUTORIAL\MRTK-TUTORIAL\MRTK-TUTORIAL\_BUILD\HANDEXAMPLE\BUILD\OBJ\MRTK-TUTORIAL\ARM\DEBUG\APP.OBJ"
"E:\UNITY\PROJECT\MRTK-TUTORIAL\MRTK-TUTORIAL\MRTK-TUTORIAL\_BUILD\HANDEXAMPLE\BUILD\OBJ\MRTK-TUTORIAL\ARM\DEBUG\MAIN.OBJ"
"E:\UNITY\PROJECT\MRTK-TUTORIAL\MRTK-TUTORIAL\MRTK-TUTORIAL\_BUILD\HANDEXAMPLE\BUILD\OBJ\MRTK-TUTORIAL\ARM\DEBUG\PCH.OBJ"
"E:\UNITY\PROJECT\MRTK-TUTORIAL\MRTK-TUTORIAL\MRTK-TUTORIAL\_BUILD\HANDEXAMPLE\BUILD\OBJ\MRTK-TUTORIAL\ARM\DEBUG\UNITYGENERATED.OBJ"
"E:\UNITY\PROJECT\MRTK-TUTORIAL\MRTK-TUTORIAL\MRTK-TUTORIAL\_BUILD\HANDEXAMPLE\MRTK-TUTORIAL\RESOURCE.RES"
